…
Tri des données par client
--------------------------

Afin de segmenter la base de données en différents profils clients, les données sont regroupées par ID client et non plus par achats.

Les ID clients sont enregistrés comme noms de lignes et non comme colonne à part entière envue de a segmentation :

``` r
remove_rownames(sommaire)
```

    ## # A tibble: 10,239 x 11
    ##    customer items discount  jour heure  food fresh drink  home beaute
    ##       <int> <dbl>    <dbl> <int> <int> <dbl> <dbl> <dbl> <dbl>  <dbl>
    ##  1        0  44.7    14.1      4    13 14.1   73.2  4.36  6.2   2.18 
    ##  2        1  31.2    17.8      1    11 17.8   52.9 17.8   3.21  2.31 
    ##  3        2  26       2.97     6    23 24.1   22.3 38.7  14.9   0    
    ##  4        3  27.8     4.10     1    12 23.8   51.3  8.22 14.8   0    
    ##  5        4  17.1     4.37     1    12 24.8   51.1 10.3  13.0   0.684
    ##  6        5  21      11.8      2    23  6.84   0   24.0  26.9  10.2  
    ##  7        6  40.8     2.68     1    12 39.3   23.8 19.7   5.63  2.19 
    ##  8        7  40       0.93     1    20 23.7   52.5 13.9   0     9.83 
    ##  9        8  35.2    23.7      1    12 24.1   37.6 22.4  12.0   3.92 
    ## 10        9  17.8     3.00     1     8  9.30  64.8 14.2   3.26  2.44 
    ## # ... with 10,229 more rows, and 1 more variable: sante <dbl>
…
